3 Formatting, Describing, and Visualizing Data | Lab Guide to Quantitative Research Methods in Political Science, Public Policy & Public Administration
…
The psych package provides a describe() function. The describe() function is useful to examine variables.

describe(ds$age)

##    vars    n  mean    sd median trimmed   mad min max range  skew kurtosis
## X1    1 2547 60.37 14.21     62   61.01 13.34  18  99    81 -0.39    -0.24
##      se
## X1 0.28

Find the modal value of age:

ds %>%
  count(age, sort = TRUE)

## # A tibble: 78 x 2
##      age     n
##    <int> <int>
##  1    65    88
##  2    62    86
##  3    60    79
##  4    68    78
##  5    69    78
##  6    64    71
##  7    67    71
##  8    72    71
##  9    57    70
## 10    63    69
## # … with 68 more rows
…
